{"flashType":1,"strikeTime":1446760903805,"latitude":34.7339638,"longitude":-96.3070225,"peakAmps":3046,"reserved":"000","icHeight":17915,"receivedTime":1446760916201,"numberOfSensors":20,"multiplicity":15}
{"flashType":1,"strikeTime":1446760904205,"latitude":35.3072771,"longitude":-95.7525229,"peakAmps":1660,"reserved":"000","icHeight":15256,"receivedTime":1446760916201,"numberOfSensors":7,"multiplicity":6}
{"flashType":1,"strikeTime":1446761075144,"latitude":33.651259,"longitude":-97.4635108,"peakAmps":4970,"reserved":"000","icHeight":18827,"receivedTime":1446761087837,"numberOfSensors":19,"multiplicity":14}
